<?xml version="1.0" encoding="utf-8"?>
<COLLADA xmlns="http://www.collada.org/2005/11/COLLADASchema" version="1.4.1">
  <asset><contributor><author></author><authoring_tool>FBX COLLADA exporter</authoring_tool><comments></comments></contributor><created>2014-10-01T22:05:27Z</created><keywords></keywords><modified>2014-10-01T22:05:27Z</modified><revision></revision><subject></subject><title></title><unit meter="0.025400" name="centimeter"></unit><up_axis>Y_UP</up_axis></asset>
  <library_images>
    <image id="Map #1-image" name="Map #1"><init_from>media/materials/textures/Muesli.jpg</init_from></image>
  </library_images>
  <library_materials>
    <material id="Material #36" name="Material #36">
      <instance_effect url="#Material #36-fx"/>
    </material>
  </library_materials>
  <library_effects>
    <effect id="Material #36-fx" name="Material #36">
      <profile_COMMON>
        <technique sid="standard">
          <phong>
            <emission>
              <color sid="emission">0.000000  0.000000 0.000000 1.000000</color>
            </emission>
            <ambient>
              <color sid="ambient">0.588000  0.588000 0.588000 1.000000</color>
            </ambient>
            <diffuse>
              <texture texture="Map #1-image" texcoord="CHANNEL0">
                <extra>
                  <technique profile="MAYA">
                    <wrapU sid="wrapU0">TRUE</wrapU>
                    <wrapV sid="wrapV0">TRUE</wrapV>
                    <blend_mode>ADD</blend_mode>
                  </technique>
                </extra>
              </texture>
            </diffuse>
            <specular>
              <color sid="specular">0.000000  0.000000 0.000000 1.000000</color>
            </specular>
            <shininess>
              <float sid="shininess">2.000000</float>
            </shininess>
            <reflective>
              <color sid="reflective">0.000000  0.000000 0.000000 1.000000</color>
            </reflective>
            <reflectivity>
              <float sid="reflectivity">1.000000</float>
            </reflectivity>
            <transparent opaque="RGB_ZERO">
              <color sid="transparent">1.000000  1.000000 1.000000 1.000000</color>
            </transparent>
            <transparency>
              <float sid="transparency">0.000000</float>
            </transparency>
          </phong>
        </technique>
      </profile_COMMON>
    </effect>
  </library_effects>
  <library_geometries>
    <geometry id="Muesli-lib" name="MuesliMesh">
      <mesh>
        <source id="Muesli-POSITION">
          <float_array id="Muesli-POSITION-array" count="24">
-2.401575 -2.677165 0.000000
2.401575 -2.677165 0.000000
-2.401575 2.677165 0.000000
2.401575 2.677165 0.000000
-2.401575 -2.677165 1.850394
2.401575 -2.677165 1.850394
-2.401575 2.677165 1.850394
2.401575 2.677165 1.850394
</float_array>
          <technique_common>
            <accessor source="#Muesli-POSITION-array" count="8" stride="3">
              <param name="X" type="float"/>
              <param name="Y" type="float"/>
              <param name="Z" type="float"/>
            </accessor>
          </technique_common>
        </source>
        <source id="Muesli-Normal0">
          <float_array id="Muesli-Normal0-array" count="108">
0.000000 0.000000 -1.000000
0.000000 0.000000 -1.000000
0.000000 0.000000 -1.000000
0.000000 0.000000 -1.000000
0.000000 0.000000 -1.000000
0.000000 0.000000 -1.000000
0.000000 0.000000 1.000000
0.000000 0.000000 1.000000
0.000000 0.000000 1.000000
0.000000 0.000000 1.000000
0.000000 0.000000 1.000000
0.000000 0.000000 1.000000
0.000000 -1.000000 0.000000
0.000000 -1.000000 0.000000
0.000000 -1.000000 0.000000
0.000000 -1.000000 0.000000
0.000000 -1.000000 0.000000
0.000000 -1.000000 0.000000
1.000000 0.000000 0.000000
1.000000 0.000000 0.000000
1.000000 0.000000 0.000000
1.000000 0.000000 0.000000
1.000000 0.000000 0.000000
1.000000 0.000000 0.000000
0.000000 1.000000 0.000000
0.000000 1.000000 0.000000
0.000000 1.000000 0.000000
0.000000 1.000000 0.000000
0.000000 1.000000 0.000000
0.000000 1.000000 0.000000
-1.000000 0.000000 0.000000
-1.000000 0.000000 0.000000
-1.000000 0.000000 0.000000
-1.000000 0.000000 0.000000
-1.000000 0.000000 0.000000
-1.000000 0.000000 0.000000
</float_array>
          <technique_common>
            <accessor source="#Muesli-Normal0-array" count="36" stride="3">
              <param name="X" type="float"/>
              <param name="Y" type="float"/>
              <param name="Z" type="float"/>
            </accessor>
          </technique_common>
        </source>
        <source id="Muesli-UV0">
          <float_array id="Muesli-UV0-array" count="48">
0.446231 0.999447
0.000377 0.999447
0.000377 0.000211
0.446231 0.000211
0.000272 0.999574
0.000272 0.000690
0.446190 0.000690
0.446190 0.999574
0.447260 0.348928
0.945572 0.348928
0.945572 0.743600
0.447260 0.743600
0.446740 0.002714
0.945793 0.002714
0.945793 0.346928
0.446740 0.346928
0.447043 0.348982
0.945527 0.348982
0.945527 0.743933
0.447043 0.743933
0.447125 0.348907
0.945397 0.348907
0.945397 0.743766
0.447124 0.743765
</float_array>
          <technique_common>
            <accessor source="#Muesli-UV0-array" count="24" stride="2">
              <param name="S" type="float"/>
              <param name="T" type="float"/>
            </accessor>
          </technique_common>
        </source>
        <vertices id="Muesli-VERTEX">
          <input semantic="POSITION" source="#Muesli-POSITION"/>
        </vertices>
        <triangles count="12" material="Material #36"><input semantic="VERTEX" offset="0" source="#Muesli-VERTEX"/><input semantic="NORMAL" offset="1" source="#Muesli-Normal0"/><input semantic="TEXCOORD" offset="2" set="0" source="#Muesli-UV0"/><p> 1 0 3 0 1 0 3 2 2 0 3 0 2 4 1 3 5 2 7 6 6 6 7 7 4 8 4 7 9 6 4 10 4 5 11 5 5 12 10 4 13 11 0 14 8 5 15 10 0 16 8 1 17 9 7 18 14 5 19 15 1 20 12 7 21 14 1 22 12 3 23 13 6 24 18 7 25 19 3 26 16 6 27 18 3 28 16 2 29 17 4 30 22 6 31 23 2 32 20 4 33 22 2 34 20 0 35 21</p></triangles>
      </mesh>
    </geometry>
  </library_geometries>
  <library_visual_scenes>
    <visual_scene id="" name="">
      <node name="Muesli" id="Muesli" sid="Muesli"><matrix sid="matrix">1.000000 0.000000 0.000000 0.368860 0.000000 0.000000 1.000000 0.000000 0.000000 -1.000000 0.000000 0.132995 0.000000 0.000000 0.000000 1.000000</matrix><instance_geometry url="#Muesli-lib"><bind_material><technique_common><instance_material symbol="Material #36" target="#Material #36"/></technique_common></bind_material></instance_geometry><extra><technique profile="FCOLLADA"><visibility>1.000000</visibility></technique></extra></node>
      <extra><technique profile="MAX3D"><frame_rate>30.000000</frame_rate></technique><technique profile="FCOLLADA"><start_time>0.000000</start_time><end_time>3.333333</end_time></technique></extra>
    </visual_scene>
  </library_visual_scenes>
  <scene>
    <instance_visual_scene url="#"></instance_visual_scene>
  </scene>
</COLLADA>
